{
"extension-id": "arcmenu",
"uuid": "arcmenu@arcmenu.com",
"settings-schema": "org.gnome.shell.extensions.arcmenu",
"gettext-domain": "arcmenu",
"name": "ArcMenu",
"description": "An Application Menu for GNOME",
"version": 6,
"shell-version": [ "3.36", "3.38" ],
"url": "https://gitlab.com/arcmenu/ArcMenu"
}
